PARTE_D/simulation/qsim/ej_d.msim.vcd
$comment
	File created using the following command:
		vcd file ej_d.msim.vcd -direction
$end
$date
	Wed Nov 06 00:45:18 2024
$end
$version
	ModelSim Version 10.1d
$end
$timescale
	1ps
$end
$scope module sec_de_luces_vhd_vec_tst $end
$var wire 1 ! clock $end
$var wire 1 " LedA $end
$var wire 1 # LedB $end
$var wire 1 $ LedC $end
$var wire 1 % LedD $end
$var wire 1 & reset $end
$var wire 1 ' x $end
$scope module i1 $end
$var wire 1 ( gnd $end
$var wire 1 ) vcc $end
$var wire 1 * unknown $end
$var wire 1 + devoe $end
$var wire 1 , devclrn $end
$var wire 1 - devpor $end
$var wire 1 . ww_devoe $end
$var wire 1 / ww_devclrn $end
$var wire 1 0 ww_devpor $end
$var wire 1 1 ww_reset $end
$var wire 1 2 ww_clock $end
$var wire 1 3 ww_x $end
$var wire 1 4 ww_LedA $end
$var wire 1 5 ww_LedB $end
$var wire 1 6 ww_LedC $end
$var wire 1 7 ww_LedD $end
$var wire 1 8 \clock~inputclkctrl_INCLK_bus\ [3] $end
$var wire 1 9 \clock~inputclkctrl_INCLK_bus\ [2] $end
$var wire 1 : \clock~inputclkctrl_INCLK_bus\ [1] $end
$var wire 1 ; \clock~inputclkctrl_INCLK_bus\ [0] $end
$var wire 1 < \LedA~output_o\ $end
$var wire 1 = \LedB~output_o\ $end
$var wire 1 > \LedC~output_o\ $end
$var wire 1 ? \LedD~output_o\ $end
$var wire 1 @ \clock~input_o\ $end
$var wire 1 A \clock~inputclkctrl_outclk\ $end
$var wire 1 B \reset~input_o\ $end
$var wire 1 C \x~input_o\ $end
$var wire 1 D \reg_fstate.B1~0_combout\ $end
$var wire 1 E \fstate.B1~q\ $end
$var wire 1 F \reg_fstate.B2~0_combout\ $end
$var wire 1 G \fstate.B2~q\ $end
$var wire 1 H \reg_fstate.A1~0_combout\ $end
$var wire 1 I \fstate.A1~q\ $end
$var wire 1 J \reg_fstate.E~0_combout\ $end
$var wire 1 K \fstate.E~q\ $end
$var wire 1 L \reg_fstate.A2~0_combout\ $end
$var wire 1 M \fstate.A2~q\ $end
$var wire 1 N \reg_fstate.B3~0_combout\ $end
$var wire 1 O \fstate.B3~q\ $end
$var wire 1 P \reg_fstate.Idle~0_combout\ $end
$var wire 1 Q \fstate.Idle~q\ $end
$var wire 1 R \LedA~0_combout\ $end
$var wire 1 S \LedB~0_combout\ $end
$var wire 1 T \LedC~0_combout\ $end
$var wire 1 U \LedD~0_combout\ $end
$var wire 1 V \ALT_INV_LedA~0_combout\ $end
$upscope $end
$upscope $end
$enddefinitions $end
#0
$dumpvars
0!
0"
0#
0$
0%
0&
0'
0(
1)
x*
1+
1,
1-
1.
1/
10
01
02
03
04
05
06
07
0<
0=
0>
0?
0@
0A
0B
0C
0D
0E
0F
0G
1H
0I
0J
0K
0L
0M
0N
0O
1P
0Q
1R
0S
0T
0U
0V
18
19
1:
0;
$end
#25000
1!
12
1@
1;
1A
1I
1Q
0H
1S
1J
1T
1>
1=
16
15
1$
1#
#50000
0!
02
0@
0;
0A
#75000
1!
12
1@
1;
1A
0I
1K
1L
1U
0J
0R
1V
1?
1<
17
14
1%
1"
#100000
0!
02
0@
0;
0A
#125000
1!
12
1@
1;
1A
0K
1M
0P
0S
0L
0T
0>
0=
06
05
0$
0#
#150000
0!
02
0@
0;
0A
#175000
1!
12
1@
1;
1A
0M
0Q
1H
1R
1P
0U
0V
0?
0<
07
04
0%
0"
#200000
0!
02
0@
0;
0A
#225000
1!
12
1@
1;
1A
1I
1Q
0H
1S
1J
1T
1>
1=
16
15
1$
1#
#250000
0!
02
0@
0;
0A
#275000
1!
12
1@
1;
1A
0I
1K
1L
1U
0J
0R
1V
1?
1<
17
14
1%
1"
#300000
0!
02
0@
0;
0A
#325000
1!
12
1@
1;
1A
0K
1M
0P
0S
0L
0T
0>
0=
06
05
0$
0#
#350000
0!
02
0@
0;
0A
#375000
1!
12
1@
1;
1A
0M
0Q
1H
1R
1P
0U
0V
0?
0<
07
04
0%
0"
#400000
0!
02
0@
0;
0A
#425000
1!
12
1@
1;
1A
1I
1Q
0H
1S
1J
1T
1>
1=
16
15
1$
1#
#450000
0!
02
0@
0;
0A
#475000
1!
12
1@
1;
1A
0I
1K
1L
1U
0J
0R
1V
1?
1<
17
14
1%
1"
#500000
0!
02
0@
0;
0A
#525000
1!
12
1@
1;
1A
0K
1M
0P
0S
0L
0T
0>
0=
06
05
0$
0#
#550000
0!
02
0@
0;
0A
#575000
1!
12
1@
1;
1A
0M
0Q
1H
1R
1P
0U
0V
0?
0<
07
04
0%
0"
#600000
0!
02
0@
0;
0A
#625000
1!
12
1@
1;
1A
1I
1Q
0H
1S
1J
1T
1>
1=
16
15
1$
1#
#650000
0!
02
0@
0;
0A
#675000
1!
12
1@
1;
1A
0I
1K
1L
1U
0J
0R
1V
1?
1<
17
14
1%
1"
#700000
0!
02
0@
0;
0A
#725000
1!
12
1@
1;
1A
0K
1M
0P
0S
0L
0T
0>
0=
06
05
0$
0#
#750000
0!
02
0@
0;
0A
#775000
1!
12
1@
1;
1A
0M
0Q
1H
1R
1P
0U
0V
0?
0<
07
04
0%
0"
#800000
0!
02
0@
0;
0A
#825000
1!
12
1@
1;
1A
1I
1Q
0H
1S
1J
1T
1>
1=
16
15
1$
1#
#850000
0!
02
0@
0;
0A
#875000
1!
12
1@
1;
1A
0I
1K
1L
1U
0J
0R
1V
1?
1<
17
14
1%
1"
#900000
0!
02
0@
0;
0A
#925000
1!
12
1@
1;
1A
0K
1M
0P
0S
0L
0T
0>
0=
06
05
0$
0#
#950000
0!
02
0@
0;
0A
#975000
1!
12
1@
1;
1A
0M
0Q
1H
1R
1P
0U
0V
0?
0<
07
04
0%
0"
