PARTE_C/simulation/qsim/ej_c.msim.vcd
$comment
	File created using the following command:
		vcd file ej_c.msim.vcd -direction
$end
$date
	Tue Nov 05 20:47:08 2024
$end
$version
	ModelSim Version 10.1d
$end
$timescale
	1ps
$end
$scope module restador_4_bits_vhd_vec_tst $end
$var wire 1 ! A0 $end
$var wire 1 " A1 $end
$var wire 1 # A2 $end
$var wire 1 $ A3 $end
$var wire 1 % B0 $end
$var wire 1 & B1 $end
$var wire 1 ' B2 $end
$var wire 1 ( B3 $end
$var wire 1 ) B_in $end
$var wire 1 * B_out $end
$var wire 1 + CLOCK $end
$var wire 1 , R0 $end
$var wire 1 - R1 $end
$var wire 1 . R2 $end
$var wire 1 / R3 $end
$scope module i1 $end
$var wire 1 0 gnd $end
$var wire 1 1 vcc $end
$var wire 1 2 unknown $end
$var wire 1 3 devoe $end
$var wire 1 4 devclrn $end
$var wire 1 5 devpor $end
$var wire 1 6 ww_devoe $end
$var wire 1 7 ww_devclrn $end
$var wire 1 8 ww_devpor $end
$var wire 1 9 ww_R3 $end
$var wire 1 : ww_A3 $end
$var wire 1 ; ww_CLOCK $end
$var wire 1 < ww_B3 $end
$var wire 1 = ww_B_in $end
$var wire 1 > ww_R2 $end
$var wire 1 ? ww_A2 $end
$var wire 1 @ ww_B2 $end
$var wire 1 A ww_R1 $end
$var wire 1 B ww_A1 $end
$var wire 1 C ww_B1 $end
$var wire 1 D ww_R0 $end
$var wire 1 E ww_A0 $end
$var wire 1 F ww_B0 $end
$var wire 1 G ww_B_out $end
$var wire 1 H \CLOCK~inputclkctrl_INCLK_bus\ [3] $end
$var wire 1 I \CLOCK~inputclkctrl_INCLK_bus\ [2] $end
$var wire 1 J \CLOCK~inputclkctrl_INCLK_bus\ [1] $end
$var wire 1 K \CLOCK~inputclkctrl_INCLK_bus\ [0] $end
$var wire 1 L \R3~output_o\ $end
$var wire 1 M \R2~output_o\ $end
$var wire 1 N \R1~output_o\ $end
$var wire 1 O \R0~output_o\ $end
$var wire 1 P \B_out~output_o\ $end
$var wire 1 Q \CLOCK~input_o\ $end
$var wire 1 R \CLOCK~inputclkctrl_outclk\ $end
$var wire 1 S \B_in~input_o\ $end
$var wire 1 T \A3~input_o\ $end
$var wire 1 U \inst4|Q~feeder_combout\ $end
$var wire 1 V \inst4|Q~q\ $end
$var wire 1 W \B3~input_o\ $end
$var wire 1 X \inst5|Q~feeder_combout\ $end
$var wire 1 Y \inst5|Q~q\ $end
$var wire 1 Z \inst|R~0_combout\ $end
$var wire 1 [ \inst12|Q~q\ $end
$var wire 1 \ \A2~input_o\ $end
$var wire 1 ] \inst6|Q~feeder_combout\ $end
$var wire 1 ^ \inst6|Q~q\ $end
$var wire 1 _ \inst|B_out~0_combout\ $end
$var wire 1 ` \B2~input_o\ $end
$var wire 1 a \inst7|Q~feeder_combout\ $end
$var wire 1 b \inst7|Q~q\ $end
$var wire 1 c \inst1|R~combout\ $end
$var wire 1 d \inst13|Q~q\ $end
$var wire 1 e \A1~input_o\ $end
$var wire 1 f \inst8|Q~feeder_combout\ $end
$var wire 1 g \inst8|Q~q\ $end
$var wire 1 h \B1~input_o\ $end
$var wire 1 i \inst9|Q~feeder_combout\ $end
$var wire 1 j \inst9|Q~q\ $end
$var wire 1 k \inst2|R~0_combout\ $end
$var wire 1 l \inst2|R~combout\ $end
$var wire 1 m \inst14|Q~q\ $end
$var wire 1 n \B0~input_o\ $end
$var wire 1 o \inst11|Q~q\ $end
$var wire 1 p \A0~input_o\ $end
$var wire 1 q \inst10|Q~q\ $end
$var wire 1 r \inst2|B_out~0_combout\ $end
$var wire 1 s \inst2|B_out~1_combout\ $end
$var wire 1 t \inst2|B_out~2_combout\ $end
$var wire 1 u \inst3|R~combout\ $end
$var wire 1 v \inst15|Q~q\ $end
$var wire 1 w \inst3|B_out~0_combout\ $end
$var wire 1 x \inst16|Q~q\ $end
$upscope $end
$upscope $end
$enddefinitions $end
#0
$dumpvars
0!
0"
1#
1$
0%
1&
0'
0(
0)
0*
0+
0,
0-
0.
0/
00
11
x2
13
14
15
16
17
18
09
1:
0;
0<
0=
0>
1?
0@
0A
0B
1C
0D
0E
0F
0G
0L
0M
0N
0O
0P
0Q
0R
0S
1T
1U
0V
0W
0X
0Y
0Z
0[
1\
1]
0^
0_
0`
0a
0b
0c
0d
0e
0f
0g
1h
1i
0j
0k
0l
0m
0n
0o
0p
0q
0r
1s
0t
0u
0v
0w
0x
1H
1I
1J
0K
$end
#10000
1!
1%
0&
1(
1E
1F
0C
1<
1W
0h
1n
1p
0i
1X
#20000
0(
1"
0#
0$
1'
0<
1B
0?
0:
1@
1`
0T
0\
1e
0W
0X
1f
0]
0U
1a
#30000
1(
0"
1$
0'
0%
1&
1<
0B
1:
0@
0F
1C
1h
0n
0`
1T
0e
1W
1X
0f
1U
0a
1i
#40000
1"
0$
1%
1#
1+
1B
0:
1F
1?
1;
1Q
1\
1n
0T
1e
1K
1f
0U
1]
1R
1Y
1^
1g
1j
1o
1q
1c
1Z
1_
0c
#50000
0"
0%
0#
0(
1'
0&
0!
0B
0F
0?
0<
1@
0C
0E
0p
0h
1`
0W
0\
0n
0e
0f
0]
0X
1a
0i
#60000
1"
1%
1$
1B
1F
1:
1T
1n
1e
1f
1U
#70000
0%
1#
1(
1&
1!
0F
1?
1<
1C
1E
1p
1h
1W
1\
0n
1]
1X
1i
#80000
0#
0&
0!
0"
0+
0?
0C
0E
0B
0;
0Q
0e
0p
0h
0\
0K
0]
0i
0f
0R
#90000
1!
1%
1E
1F
1n
1p
#100000
0%
1&
0(
0'
0F
1C
0<
0@
0`
0W
1h
0n
1i
0X
0a
#110000
0!
1#
1"
0$
0E
1?
1B
0:
0T
1e
1\
0p
1]
1f
0U
#120000
1$
1%
1(
1+
1:
1F
1<
1;
1Q
1W
1n
1T
1K
1U
1X
1R
1V
1[
0q
1u
1w
0Z
0_
1c
1L
19
1/
#130000
0(
0#
0&
1'
0<
0?
0C
1@
1`
0h
0\
0W
0X
0]
0i
1a
#140000
1#
1&
0%
1?
1C
0F
0n
1h
1\
1]
1i
#150000
1%
0'
0$
0"
1F
0@
0:
0B
0e
0T
0`
1n
0a
0U
0f
#160000
0%
1$
0&
0+
0F
1:
0C
0;
0Q
0h
1T
0n
0K
1U
0i
0R
#170000
1'
0#
1(
1!
1@
0?
1<
1E
1p
1W
0\
1`
1a
0]
1X
#180000
0'
0!
1%
1&
1"
0@
0E
1F
1C
1B
1e
1h
1n
0p
0`
0a
1i
1f
#190000
1'
1!
1#
1@
1E
1?
1\
1p
1`
1a
1]
#200000
0'
0!
0#
0&
0"
0(
1+
0@
0E
0?
0C
0B
0<
1;
1Q
0W
0e
0h
0\
0p
0`
1K
0a
0]
0i
0f
0X
1R
0Y
0[
0^
1d
0g
0j
1v
1x
0c
1Z
1P
1O
1M
0L
1G
1D
1>
09
1*
1,
1.
0/
#210000
1!
1&
1(
0%
0$
1E
1C
1<
0F
0:
0T
0n
1W
1h
1p
1i
1X
0U
#220000
0!
0&
0E
0C
0h
0p
0i
#230000
1!
1&
0(
1$
1#
1"
1E
1C
0<
1:
1?
1B
1e
1\
1T
0W
1h
1p
1i
0X
1U
1]
1f
#240000
0!
0&
0"
1%
1'
0+
0E
0C
0B
1F
1@
0;
0Q
1`
1n
0e
0h
0p
0K
0i
0f
1a
0R
#250000
1!
1&
0'
1(
0$
1E
1C
0@
1<
0:
0T
1W
0`
1h
1p
1i
0a
1X
0U
#260000
0!
0&
1'
1$
1"
0#
0E
0C
1@
1:
1B
0?
0\
1e
1T
1`
0h
0p
0i
1a
1U
1f
0]
#270000
1&
0"
1C
0B
0e
1h
1i
0f
#280000
1!
0$
1#
1+
1E
0:
1?
1;
1Q
1\
0T
1p
1K
0U
1]
1R
0V
1Y
1[
1^
1b
0d
1j
1q
0u
0w
1k
1r
1_
1c
1t
1u
1w
0M
1L
0>
19
0.
1/
#290000
1$
0#
0&
0%
1:
0?
0C
0F
0n
0h
0\
1T
1U
0]
0i
#300000
1&
1%
1"
0(
1C
1F
1B
0<
0W
1e
1n
1h
1i
1f
0X
#310000
0%
1(
0F
1<
1W
0n
1X
#320000
0(
0&
0$
0+
0'
0<
0C
0:
0;
0@
0`
0Q
0T
0h
0W
0K
0X
0i
0U
0a
0R
#330000
1(
1&
1$
1'
1%
0"
1#
0!
1<
1C
1:
1@
1F
0B
1?
0E
0p
1\
0e
1n
1`
1T
1h
1W
1X
1i
1U
1a
0f
1]
#340000
0'
1"
0@
1B
1e
0`
0a
1f
#350000
0(
0&
0%
0#
0<
0C
0F
0?
0\
0n
0h
0W
0X
0i
0]
#360000
1(
1%
1#
1'
0$
1+
1<
1F
1?
1@
0:
1;
1Q
0T
1`
1\
1n
1W
1K
1X
1]
1a
0U
1R
1d
1g
0j
0q
0u
0r
0s
0t
1M
1u
1>
1.
#370000
0#
0?
0\
0]
#380000
0(
1$
1&
0<
1:
1C
1h
1T
0W
0X
1U
1i
#390000
1(
0$
0%
0'
0"
1!
1<
0:
0F
0@
0B
1E
1p
0e
0`
0n
0T
1W
1X
0U
0a
0f
#400000
0(
1"
0!
0&
0+
0<
1B
0E
0C
0;
0Q
0h
0p
1e
0W
0K
0X
1f
0i
0R
#410000
1(
0"
1$
1'
1#
1<
0B
1:
1@
1?
1\
1`
1T
0e
1W
1X
0f
1U
1a
1]
#420000
1!
1%
1E
1F
1n
1p
#430000
0!
0%
1"
0$
0'
0#
1&
0E
0F
1B
0:
0@
0?
1C
1h
0\
0`
0T
1e
0n
0p
1f
0U
0a
0]
1i
#440000
1$
1#
0&
1+
1:
1?
0C
1;
1Q
0h
1\
1T
1K
1U
1]
0i
1R
1V
0b
0o
0u
0w
0c
1l
0Z
0_
1c
#450000
1&
1!
1C
1E
1p
1h
1i
#460000
0&
0C
0h
0i
#470000
0!
0$
0"
1'
0E
0:
0B
1@
1`
0e
0T
0p
0U
0f
1a
#480000
1$
0+
0(
1:
0;
0<
0W
0Q
1T
0K
1U
0X
0R
#490000
0$
1"
1%
0:
1B
1F
1n
1e
0T
0U
1f
#500000
1$
0%
1(
0'
1&
0#
1:
0F
1<
0@
1C
0?
0\
1h
0`
1W
0n
1T
1U
1X
0a
1i
0]
#510000
0$
0(
0&
1!
0:
0<
0C
1E
1p
0h
0W
0T
0U
0X
0i
#520000
1(
0!
1%
1'
1+
1<
0E
1F
1@
1;
1Q
1`
1n
0p
1W
1K
1X
1a
1R
0V
0[
0^
1b
1m
1o
0v
0x
1u
1w
0l
1Z
1_
0c
0P
0O
1N
0L
0G
0D
1A
09
0*
0,
1-
0/
#530000
1!
1#
0"
1E
1?
0B
0e
1\
1p
1]
0f
#540000
0!
0#
1"
0(
0%
0'
0E
0?
1B
0<
0F
0@
0`
0n
0W
1e
0\
0p
0]
1f
0X
0a
#550000
1!
1#
1%
1'
1$
1&
1E
1?
1F
1@
1:
1C
1h
1T
1`
1n
1\
1p
1]
1a
1U
1i
#560000
0%
0'
0$
0&
0+
0F
0@
0:
0C
0;
0Q
0h
0T
0`
0n
0K
0a
0U
0i
0R
#570000
1%
1'
1$
1&
0!
0"
1F
1@
1:
1C
0E
0B
0e
0p
1h
1T
1`
1n
1a
1U
1i
0f
#580000
0%
0'
0$
1!
0#
0F
0@
0:
1E
0?
0\
1p
0T
0`
0n
0a
0U
0]
#590000
1%
1$
1"
1F
1:
1B
1e
1T
1n
1U
1f
#600000
0%
0$
0"
0!
0&
1+
1(
0F
0:
0B
0E
0C
1;
1<
1W
1Q
0h
0p
0e
0T
0n
1K
0U
0f
0i
1X
1R
1[
0b
0d
0g
0m
0o
1v
1x
0u
0w
0k
1s
1c
1t
1l
1P
1O
0N
0M
1L
1u
1w
1G
1D
0A
0>
19
1*
1,
0-
0.
1/
#610000
1%
1!
1&
0(
1'
1#
1F
1E
1C
0<
1@
1?
1\
1`
0W
1h
1p
1n
1i
0X
1a
1]
#620000
0&
1(
0C
1<
1W
0h
0i
1X
#630000
0!
0'
0#
1$
1"
0E
0@
0?
1:
1B
1e
1T
0\
0`
0p
0a
0]
1U
1f
#640000
1#
0(
0+
1?
0<
0;
0Q
0W
1\
0K
1]
0X
0R
#660000
0#
1!
0$
0"
1&
0?
1E
0:
0B
1C
1h
0e
0T
1p
0\
0]
0U
0f
1i
#670000
0!
0E
0p
#680000
1!
1#
1$
1(
1+
1'
0%
1E
1?
1:
1<
1;
1@
0F
0n
1`
1Q
1W
1T
1\
1p
1K
1]
1U
1X
1a
1R
1V
1^
1b
1d
1j
1m
1q
0u
0w
1k
1r
0Z
0_
0c
0t
1N
1M
1A
1>
1-
1.
#690000
0#
0$
0'
1%
0?
0:
0@
1F
1n
0`
0T
0\
0]
0U
0a
#700000
1#
0%
1"
1?
0F
1B
1e
0n
1\
1]
1f
#710000
0#
1'
0!
0(
0?
1@
0E
0<
0W
0p
1`
0\
0]
1a
0X
#720000
0'
1!
1(
1$
0+
0@
1E
1<
1:
0;
0Q
1T
1W
1p
0`
0K
0a
1X
1U
0R
#730000
0!
0$
0"
0E
0:
0B
0e
0T
0p
0U
0f
#740000
1$
1'
1#
1%
0&
1:
1@
1?
1F
0C
0h
1n
1\
1`
1T
1U
1a
1]
0i
#750000
0$
0'
0%
0(
0:
0@
0F
0<
0W
0n
0`
0T
0U
0a
0X
#760000
1$
1(
0#
1&
1"
1+
1:
1<
0?
1C
1B
1;
1Q
1e
1h
0\
1W
1T
1K
1U
1X
0]
1i
1f
1R
0[
0^
0b
0d
1g
0q
0v
0x
1u
1w
0k
0r
0u
0w
0l
0P
0O
0M
0L
0G
0D
0>
09
0*
0,
0.
0/
#770000
0$
0"
1!
0:
0B
1E
1p
0e
0T
0U
0f
#780000
1$
0!
0&
1:
0E
0C
0h
0p
1T
1U
0i
#790000
0$
1"
0(
1'
0:
1B
0<
1@
1`
0W
1e
0T
0U
1f
0X
1a
#800000
1$
0"
1#
0+
1%
1:
0B
1?
0;
1F
1n
0Q
1\
0e
1T
0K
1U
0f
1]
0R
#810000
0%
0'
1&
0F
0@
1C
1h
0`
0n
0a
1i
#820000
1%
0#
1F
0?
0\
1n
0]
#830000
0&
0$
1"
1(
1!
0C
0:
1B
1<
1E
1p
1W
1e
0T
0h
0i
0U
1f
1X
#840000
0"
0(
0!
0%
1#
1'
1+
0B
0<
0E
0F
1?
1@
1;
1Q
1`
1\
0n
0p
0W
0e
1K
0f
0X
1]
1a
1R
0V
0Y
1^
1b
0g
0j
0m
0N
0A
0-
#850000
1"
1(
1!
1%
0#
1&
1$
1B
1<
1E
1F
0?
1C
1:
1T
1h
0\
1n
1p
1W
1e
1f
1X
0]
1i
1U
#860000
0"
0(
0$
0B
0<
0:
0T
0W
0e
0f
0X
0U
#870000
1"
1(
0!
0'
1B
1<
0E
0@
0`
0p
1W
1e
1f
1X
0a
#880000
1'
1$
0&
0+
1@
1:
0C
0;
0Q
0h
1T
1`
0K
1a
1U
0i
0R
#890000
0'
1!
0@
1E
1p
0`
0a
#900000
1'
0!
0$
1&
0%
1#
1@
0E
0:
1C
0F
1?
1\
0n
1h
0T
0p
1`
1a
0U
1i
1]
#910000
1!
1E
1p
#920000
0!
0#
1+
0(
0E
0?
1;
0<
0W
1Q
0\
0p
1K
0]
0X
1R
0^
1g
1j
1c
1l
1t
1u
1w
#930000
1(
0'
1%
0"
1<
0@
1F
0B
0e
1n
0`
1W
1X
0a
0f
#940000
0(
0%
1"
1!
0<
0F
1B
1E
1p
1e
0n
0W
0X
1f
#950000
1%
0"
1#
1$
0&
1F
0B
1?
1:
0C
0h
1T
1\
0e
1n
0f
1]
1U
0i
#960000
0%
1"
0#
0$
1&
0!
1'
0+
0F
1B
0?
0:
1C
0E
1@
0;
0Q
1`
0p
1h
0T
0\
1e
0n
0K
1f
0]
0U
1i
1a
0R
#970000
0"
1!
0'
0B
1E
0@
0`
1p
0e
0f
0a
#980000
1"
1%
1#
1$
0&
1(
1B
1F
1?
1:
0C
1<
1W
0h
1T
1\
1n
1e
1f
1]
1U
0i
1X
#990000
0"
0%
1&
0(
1'
0B
0F
1C
0<
1@
1`
0W
1h
0n
0e
0f
1i
0X
1a
