PARTE_A/simulation/qsim/ej_a.msim.vcd
$comment
	File created using the following command:
		vcd file ej_a.msim.vcd -direction
$end
$date
	Wed Oct 23 20:22:42 2024
$end
$version
	ModelSim Version 10.1d
$end
$timescale
	1ps
$end
$scope module ej_a_vhd_vec_tst $end
$var wire 1 ! LED $end
$var wire 1 " SW1 $end
$var wire 1 # SW2 $end
$var wire 1 $ SW3 $end
$scope module i1 $end
$var wire 1 % gnd $end
$var wire 1 & vcc $end
$var wire 1 ' unknown $end
$var wire 1 ( devoe $end
$var wire 1 ) devclrn $end
$var wire 1 * devpor $end
$var wire 1 + ww_devoe $end
$var wire 1 , ww_devclrn $end
$var wire 1 - ww_devpor $end
$var wire 1 . ww_SW1 $end
$var wire 1 / ww_SW2 $end
$var wire 1 0 ww_SW3 $end
$var wire 1 1 ww_LED $end
$var wire 1 2 \LED~output_o\ $end
$var wire 1 3 \SW1~input_o\ $end
$var wire 1 4 \SW3~input_o\ $end
$var wire 1 5 \SW2~input_o\ $end
$var wire 1 6 \LED~0_combout\ $end
$upscope $end
$upscope $end
$enddefinitions $end
#0
$dumpvars
1!
1"
0#
1$
0%
1&
x'
1(
1)
1*
1+
1,
1-
1.
0/
10
11
12
13
14
05
16
$end
#50000
1#
1/
15
06
02
01
0!
#100000
0#
0/
05
16
12
11
1!
#150000
1#
1/
15
06
02
01
0!
#200000
0#
0/
05
16
12
11
1!
#250000
1#
1/
15
06
02
01
0!
#300000
0#
0/
05
16
12
11
1!
#350000
1#
1/
15
06
02
01
0!
#400000
0#
0/
05
16
12
11
1!
#450000
1#
1/
15
06
02
01
0!
#500000
0#
0/
05
16
12
11
1!
#550000
1#
1/
15
06
02
01
0!
#600000
0#
0/
05
16
12
11
1!
#650000
1#
1/
15
06
02
01
0!
#700000
0#
0/
05
16
12
11
1!
#750000
1#
1/
15
06
02
01
0!
#800000
0#
0/
05
16
12
11
1!
#850000
1#
1/
15
06
02
01
0!
#900000
0#
0/
05
16
12
11
1!
#950000
1#
1/
15
06
02
01
0!
