PARTE_A/simulation/qsim/ej_a.msim.vcd
$comment
	File created using the following command:
		vcd file ej_a.msim.vcd -direction
$end
$date
	Wed Oct 23 01:59:41 2024
$end
$version
	ModelSim Version 10.1d
$end
$timescale
	1ps
$end
$scope module ej_a_vhd_vec_tst $end
$var wire 1 ! LED $end
$var wire 1 " SW1 $end
$var wire 1 # SW2 $end
$var wire 1 $ SW3 $end
$scope module i1 $end
$var wire 1 % gnd $end
$var wire 1 & vcc $end
$var wire 1 ' unknown $end
$var wire 1 ( devoe $end
$var wire 1 ) devclrn $end
$var wire 1 * devpor $end
$var wire 1 + ww_devoe $end
$var wire 1 , ww_devclrn $end
$var wire 1 - ww_devpor $end
$var wire 1 . ww_SW1 $end
$var wire 1 / ww_SW2 $end
$var wire 1 0 ww_SW3 $end
$var wire 1 1 ww_LED $end
$var wire 1 2 \LED~output_o\ $end
$var wire 1 3 \SW1~input_o\ $end
$var wire 1 4 \SW3~input_o\ $end
$var wire 1 5 \SW2~input_o\ $end
$var wire 1 6 \LED~0_combout\ $end
$upscope $end
$upscope $end
$enddefinitions $end
#0
$dumpvars
0!
1"
0#
1$
0%
1&
x'
1(
1)
1*
1+
1,
1-
1.
0/
10
01
02
x3
x4
x5
x6
$end
#514
14
#516
13
#679
05
#2023
16
#4107
x2
x1
x!
#6097
12
11
1!
#50000
1#
1/
#50514
15
#51936
06
#56012
02
01
0!
#100000
0#
0/
#100679
05
#102023
16
#106097
12
11
1!
#150000
1#
1/
#150514
15
#151936
06
#156012
02
01
0!
#200000
0#
0/
#200679
05
#202023
16
#206097
12
11
1!
#250000
1#
1/
#250514
15
#251936
06
#256012
02
01
0!
#300000
0#
0/
#300679
05
#302023
16
#306097
12
11
1!
#350000
1#
1/
#350514
15
#351936
06
#356012
02
01
0!
#400000
0#
0/
#400679
05
#402023
16
#406097
12
11
1!
#450000
1#
1/
#450514
15
#451936
06
#456012
02
01
0!
#500000
0#
0/
#500679
05
#502023
16
#506097
12
11
1!
#550000
1#
1/
#550514
15
#551936
06
#556012
02
01
0!
#600000
0#
0/
#600679
05
#602023
16
#606097
12
11
1!
#650000
1#
1/
#650514
15
#651936
06
#656012
02
01
0!
#700000
0#
0/
#700679
05
#702023
16
#706097
12
11
1!
#750000
1#
1/
#750514
15
#751936
06
#756012
02
01
0!
#800000
0#
0/
#800679
05
#802023
16
#806097
12
11
1!
#850000
1#
1/
#850514
15
#851936
06
#856012
02
01
0!
#900000
0#
0/
#900679
05
#902023
16
#906097
12
11
1!
#950000
1#
1/
#950514
15
#951936
06
#956012
02
01
0!
