PARTE_B/simulation/qsim/ej_b.msim.vcd
$comment
	File created using the following command:
		vcd file ej_b.msim.vcd -direction
$end
$date
	Wed Oct 23 22:55:49 2024
$end
$version
	ModelSim Version 10.1d
$end
$timescale
	1ps
$end
$scope module restador_completo_vhd_vec_tst $end
$var wire 1 ! clk $end
$var wire 1 " in_a $end
$var wire 1 # in_b $end
$var wire 1 $ in_B_in $end
$var wire 1 % o_B_out $end
$var wire 1 & o_R $end
$scope module i1 $end
$var wire 1 ' gnd $end
$var wire 1 ( vcc $end
$var wire 1 ) unknown $end
$var wire 1 * devoe $end
$var wire 1 + devclrn $end
$var wire 1 , devpor $end
$var wire 1 - ww_devoe $end
$var wire 1 . ww_devclrn $end
$var wire 1 / ww_devpor $end
$var wire 1 0 ww_in_a $end
$var wire 1 1 ww_in_b $end
$var wire 1 2 ww_in_B_in $end
$var wire 1 3 ww_clk $end
$var wire 1 4 ww_o_R $end
$var wire 1 5 ww_o_B_out $end
$var wire 1 6 \clk~inputclkctrl_INCLK_bus\ [3] $end
$var wire 1 7 \clk~inputclkctrl_INCLK_bus\ [2] $end
$var wire 1 8 \clk~inputclkctrl_INCLK_bus\ [1] $end
$var wire 1 9 \clk~inputclkctrl_INCLK_bus\ [0] $end
$var wire 1 : \o_R~output_o\ $end
$var wire 1 ; \o_B_out~output_o\ $end
$var wire 1 < \clk~input_o\ $end
$var wire 1 = \clk~inputclkctrl_outclk\ $end
$var wire 1 > \in_a~input_o\ $end
$var wire 1 ? \D1|Q~feeder_combout\ $end
$var wire 1 @ \D1|Q~q\ $end
$var wire 1 A \in_b~input_o\ $end
$var wire 1 B \D2|Q~feeder_combout\ $end
$var wire 1 C \D2|Q~q\ $end
$var wire 1 D \in_B_in~input_o\ $end
$var wire 1 E \D3|Q~feeder_combout\ $end
$var wire 1 F \D3|Q~q\ $end
$var wire 1 G \R~0_combout\ $end
$var wire 1 H \D5|Q~q\ $end
$var wire 1 I \B_out~0_combout\ $end
$var wire 1 J \D4|Q~q\ $end
$upscope $end
$upscope $end
$enddefinitions $end
#0
$dumpvars
0!
1"
1#
1$
0%
0&
0'
1(
x)
1*
1+
1,
1-
1.
1/
10
11
12
03
04
05
0:
0;
x<
x=
x>
x?
0@
xA
xB
0C
xD
xE
0F
xG
0H
xI
0J
16
17
18
x9
$end
#516
1D
1A
1>
#681
0<
09
#711
0G
#717
0I
#819
0=
#3113
1E
#3128
1?
#3365
1B
#10000
0"
0#
0$
00
01
02
#10681
0D
0A
0>
#13517
0E
#13529
0?
#13761
0B
#20000
1"
10
#20516
1>
#23128
1?
#30000
0"
1#
00
11
#30516
1A
#30681
0>
#33365
1B
#33529
0?
#40000
1"
1$
10
12
#40516
1D
1>
#43113
1E
#43128
1?
#50000
0"
0#
1!
00
01
13
#50516
1<
19
#50670
1=
#50681
0A
0>
#52416
1F
1C
1@
#52773
1G
#52886
0G
#53028
1I
#53032
1G
#53529
0?
#53761
0B
#60000
1"
10
#60516
1>
#63128
1?
#70000
1#
0$
11
02
#70516
1A
#70681
0D
#73365
1B
#73517
0E
#90000
0#
1$
01
12
#90516
1D
#90681
0A
#93113
1E
#93761
0B
#100000
0$
0!
02
03
#100681
0<
0D
09
#100819
0=
#103517
0E
#110000
1$
12
#110516
1D
#113113
1E
#120000
0$
02
#120681
0D
#123517
0E
#130000
1#
11
#130516
1A
#133365
1B
#140000
0#
1$
0"
01
12
00
#140516
1D
#140681
0>
0A
#143113
1E
#143529
0?
#143761
0B
#150000
1!
13
#150516
1<
19
#150670
1=
#152416
1J
1H
0C
0@
#152969
0G
#153119
1G
#155565
1:
14
1&
#155683
1;
15
1%
#160000
1#
11
#160516
1A
#163365
1B
#170000
0#
0$
01
02
#170681
0D
0A
#173517
0E
#173761
0B
#180000
1#
1$
11
12
#180516
1D
1A
#183113
1E
#183365
1B
#190000
1"
10
#190516
1>
#193128
1?
#200000
0$
0!
02
03
#200681
0<
0D
09
#200819
0=
#203517
0E
#220000
1$
12
#220516
1D
#223113
1E
#240000
0$
0#
02
01
#240681
0A
0D
#243517
0E
#243761
0B
#250000
1!
0"
13
00
#250516
1<
19
#250670
1=
#250681
0>
#252416
0F
1@
#252836
0I
#253529
0?
#270000
1#
11
#270516
1A
#273365
1B
#290000
0#
1"
01
10
#290516
1>
#290681
0A
#293128
1?
#293761
0B
#300000
1#
0!
1$
11
03
12
#300516
1D
1A
#300681
0<
09
#300819
0=
#303113
1E
#303365
1B
#310000
0$
0"
02
00
#310681
0>
0D
#313517
0E
#313529
0?
#320000
1$
12
#320516
1D
#323113
1E
#330000
0$
1"
0#
02
10
01
#330516
1>
#330681
0A
0D
#333128
1?
#333517
0E
#333761
0B
#340000
0"
00
#340681
0>
#343529
0?
#350000
1!
13
#350516
1<
19
#350670
1=
#352416
0J
0@
#353127
0G
#355711
0;
05
0%
#360000
1#
11
#360516
1A
#363365
1B
#370000
0#
1$
01
12
#370516
1D
#370681
0A
#373113
1E
#373761
0B
#380000
1"
10
#380516
1>
#383128
1?
#390000
1#
11
#390516
1A
#393365
1B
#400000
0"
0$
0!
00
02
03
#400681
0<
0D
0>
09
#400819
0=
#403517
0E
#403529
0?
#410000
1$
12
#410516
1D
#413113
1E
#420000
0$
1"
0#
02
10
01
#420516
1>
#420681
0A
0D
#423128
1?
#423517
0E
#423761
0B
#430000
1$
0"
1#
12
00
11
#430516
1A
1D
#430681
0>
#433113
1E
#433365
1B
#433529
0?
#440000
0$
1"
0#
02
10
01
#440516
1>
#440681
0A
0D
#443128
1?
#443517
0E
#443761
0B
#450000
0"
1#
1!
00
11
13
#450516
1<
1A
19
#450670
1=
#450681
0>
#452416
0H
1@
#453032
1G
#453365
1B
#453529
0?
#455559
0:
04
0&
#480000
1"
10
#480516
1>
#483128
1?
#490000
0"
0#
00
01
#490681
0A
0>
#493529
0?
#493761
0B
#500000
0!
03
#500681
0<
09
#500819
0=
#510000
1"
1#
10
11
#510516
1A
1>
#513128
1?
#513365
1B
#520000
0"
0#
1$
00
01
12
#520516
1D
#520681
0A
0>
#523113
1E
#523529
0?
#523761
0B
#540000
1"
1#
0$
10
11
02
#540516
1A
1>
#540681
0D
#543128
1?
#543365
1B
#543517
0E
#550000
0"
0#
1!
00
01
13
#550516
1<
19
#550670
1=
#550681
0A
0>
#552416
1H
1C
#552886
0G
#553529
0?
#553761
0B
#555565
1:
14
1&
#560000
1$
12
#560516
1D
#563113
1E
#570000
0$
02
#570681
0D
#573517
0E
#580000
1"
10
#580516
1>
#583128
1?
#590000
0"
1#
00
11
#590516
1A
#590681
0>
#593365
1B
#593529
0?
#600000
1"
0#
0!
10
01
03
#600516
1>
#600681
0<
0A
09
#600819
0=
#603128
1?
#603761
0B
#610000
1$
12
#610516
1D
#613113
1E
#620000
0$
0"
1#
02
00
11
#620516
1A
#620681
0>
0D
#623365
1B
#623517
0E
#623529
0?
#630000
1$
12
#630516
1D
#633113
1E
#640000
0$
0#
02
01
#640681
0A
0D
#643517
0E
#643761
0B
#650000
1#
1"
1!
11
10
13
#650516
1<
1>
1A
19
#650670
1=
#652416
0H
0C
0@
#652962
1I
#652970
1G
#653127
0G
#653128
1?
#653133
0I
#653365
1B
#655559
0:
04
0&
#660000
0#
0"
01
00
#660681
0>
0A
#663529
0?
#663761
0B
#670000
1$
12
#670516
1D
#673113
1E
#680000
1#
11
#680516
1A
#683365
1B
#690000
0$
1"
02
10
#690516
1>
#690681
0D
#693128
1?
#693517
0E
#700000
0!
03
#700681
0<
09
#700819
0=
#710000
0"
00
#710681
0>
#713529
0?
#720000
1"
1$
0#
10
12
01
#720516
1D
1>
#720681
0A
#723113
1E
#723128
1?
#723761
0B
#730000
0"
1#
00
11
#730516
1A
#730681
0>
#733365
1B
#733529
0?
#740000
1"
0#
10
01
#740516
1>
#740681
0A
#743128
1?
#743761
0B
#750000
1!
13
#750516
1<
19
#750670
1=
#752416
1F
1@
#752773
1G
#753040
0G
#760000
0"
1#
0$
00
11
02
#760516
1A
#760681
0D
0>
#763365
1B
#763517
0E
#763529
0?
#770000
1"
1$
10
12
#770516
1D
1>
#773113
1E
#773128
1?
#780000
0"
0#
00
01
#780681
0A
0>
#783529
0?
#783761
0B
#790000
1"
0$
10
02
#790516
1>
#790681
0D
#793128
1?
#793517
0E
#800000
1$
1#
0!
12
11
03
#800516
1A
1D
#800681
0<
09
#800819
0=
#803113
1E
#803365
1B
#820000
0$
0#
0"
02
01
00
#820681
0>
0A
0D
#823517
0E
#823529
0?
#823761
0B
#840000
1$
1"
12
10
#840516
1>
1D
#843113
1E
#843128
1?
#850000
0"
1!
00
13
#850516
1<
19
#850670
1=
#850681
0>
#853529
0?
#860000
1#
11
#860516
1A
#863365
1B
#880000
0#
01
#880681
0A
#883761
0B
#890000
1"
10
#890516
1>
#893128
1?
#900000
0"
1#
0!
0$
00
11
03
02
#900516
1A
#900681
0D
0<
0>
09
#900819
0=
#903365
1B
#903517
0E
#903529
0?
#910000
1"
1$
10
12
#910516
1D
1>
#913113
1E
#913128
1?
#920000
0"
00
#920681
0>
#923529
0?
#940000
1"
0$
10
02
#940516
1>
#940681
0D
#943128
1?
#943517
0E
#950000
1$
1!
12
13
#950516
1<
1D
19
#950670
1=
#952416
0F
1C
#953113
1E
#960000
0$
0"
0#
02
00
01
#960681
0A
0>
0D
#963517
0E
#963529
0?
#963761
0B
#970000
1$
12
#970516
1D
#973113
1E
#990000
1"
1#
10
11
#990516
1A
1>
#993128
1?
#993365
1B
