PARTE_D/PARTE_D_TEMPLATE/simulation/qsim/ej_d_template.msim.vcd
$comment
	File created using the following command:
		vcd file ej_d_template.msim.vcd -direction
$end
$date
	Wed Nov 06 01:30:02 2024
$end
$version
	ModelSim Version 10.1d
$end
$timescale
	1ps
$end
$scope module sec_de_luces_template_vhd_vec_tst $end
$var wire 1 ! clk $end
$var wire 1 " reset $end
$var wire 1 # x $end
$var wire 1 $ Z [3] $end
$var wire 1 % Z [2] $end
$var wire 1 & Z [1] $end
$var wire 1 ' Z [0] $end
$scope module i1 $end
$var wire 1 ( gnd $end
$var wire 1 ) vcc $end
$var wire 1 * unknown $end
$var wire 1 + devoe $end
$var wire 1 , devclrn $end
$var wire 1 - devpor $end
$var wire 1 . ww_devoe $end
$var wire 1 / ww_devclrn $end
$var wire 1 0 ww_devpor $end
$var wire 1 1 ww_clk $end
$var wire 1 2 ww_x $end
$var wire 1 3 ww_reset $end
$var wire 1 4 ww_Z [3] $end
$var wire 1 5 ww_Z [2] $end
$var wire 1 6 ww_Z [1] $end
$var wire 1 7 ww_Z [0] $end
$var wire 1 8 \reset~inputclkctrl_INCLK_bus\ [3] $end
$var wire 1 9 \reset~inputclkctrl_INCLK_bus\ [2] $end
$var wire 1 : \reset~inputclkctrl_INCLK_bus\ [1] $end
$var wire 1 ; \reset~inputclkctrl_INCLK_bus\ [0] $end
$var wire 1 < \clk~inputclkctrl_INCLK_bus\ [3] $end
$var wire 1 = \clk~inputclkctrl_INCLK_bus\ [2] $end
$var wire 1 > \clk~inputclkctrl_INCLK_bus\ [1] $end
$var wire 1 ? \clk~inputclkctrl_INCLK_bus\ [0] $end
$var wire 1 @ \Z[0]~output_o\ $end
$var wire 1 A \Z[1]~output_o\ $end
$var wire 1 B \Z[2]~output_o\ $end
$var wire 1 C \Z[3]~output_o\ $end
$var wire 1 D \clk~input_o\ $end
$var wire 1 E \clk~inputclkctrl_outclk\ $end
$var wire 1 F \x~input_o\ $end
$var wire 1 G \state~17_combout\ $end
$var wire 1 H \reset~input_o\ $end
$var wire 1 I \reset~inputclkctrl_outclk\ $end
$var wire 1 J \state.A2~q\ $end
$var wire 1 K \state~20_combout\ $end
$var wire 1 L \state.B3~q\ $end
$var wire 1 M \state~22_combout\ $end
$var wire 1 N \state.Idle~q\ $end
$var wire 1 O \state~21_combout\ $end
$var wire 1 P \state.B1~q\ $end
$var wire 1 Q \state.B2~feeder_combout\ $end
$var wire 1 R \state.B2~q\ $end
$var wire 1 S \state~19_combout\ $end
$var wire 1 T \state.A1~q\ $end
$var wire 1 U \state~18_combout\ $end
$var wire 1 V \state.E~q\ $end
$var wire 1 W \Z~0_combout\ $end
$var wire 1 X \WideOr1~0_combout\ $end
$var wire 1 Y \WideOr0~0_combout\ $end
$var wire 1 Z \Z~1_combout\ $end
$var wire 1 [ \ALT_INV_Z~1_combout\ $end
$var wire 1 \ \ALT_INV_WideOr0~0_combout\ $end
$var wire 1 ] \ALT_INV_reset~inputclkctrl_outclk\ $end
$upscope $end
$upscope $end
$enddefinitions $end
#0
$dumpvars
0!
0"
0#
0(
1)
x*
1+
1,
1-
1.
1/
10
01
02
03
0@
0A
0B
0C
0D
0E
0F
0G
0H
0I
0J
0K
0L
1M
0N
0O
0P
0Q
0R
1S
0T
0U
0V
0W
0X
1Y
1Z
0[
0\
1]
04
05
06
07
1<
1=
1>
0?
18
19
1:
0;
0$
0%
0&
0'
$end
#25000
1!
11
1D
1?
1E
1N
1T
1U
1X
0S
0Y
1\
1A
1B
16
15
1&
1%
#50000
0!
01
0D
0?
0E
#75000
1!
11
1D
1?
1E
0T
1V
1G
1W
0U
0Z
1[
1@
1C
17
14
1'
1$
#100000
0!
01
0D
0?
0E
#125000
1!
11
1D
1?
1E
1J
0V
0G
0X
0M
1Y
0\
0A
0B
06
05
0&
0%
#150000
0!
01
0D
0?
0E
#175000
1!
11
1D
1?
1E
0J
0N
1S
1Z
1M
0W
0[
0@
0C
07
04
0'
0$
#200000
0!
01
0D
0?
0E
#225000
1!
11
1D
1?
1E
1N
1T
1U
1X
0S
0Y
1\
1A
1B
16
15
1&
1%
#250000
0!
01
0D
0?
0E
#275000
1!
11
1D
1?
1E
0T
1V
1G
1W
0U
0Z
1[
1@
1C
17
14
1'
1$
#300000
0!
01
0D
0?
0E
#325000
1!
11
1D
1?
1E
1J
0V
0G
0X
0M
1Y
0\
0A
0B
06
05
0&
0%
#350000
0!
01
0D
0?
0E
#375000
1!
11
1D
1?
1E
0J
0N
1S
1Z
1M
0W
0[
0@
0C
07
04
0'
0$
#400000
0!
01
0D
0?
0E
#425000
1!
11
1D
1?
1E
1N
1T
1U
1X
0S
0Y
1\
1A
1B
16
15
1&
1%
#450000
0!
01
0D
0?
0E
#475000
1!
11
1D
1?
1E
0T
1V
1G
1W
0U
0Z
1[
1@
1C
17
14
1'
1$
#500000
0!
01
0D
0?
0E
#525000
1!
11
1D
1?
1E
1J
0V
0G
0X
0M
1Y
0\
0A
0B
06
05
0&
0%
#550000
0!
01
0D
0?
0E
#575000
1!
11
1D
1?
1E
0J
0N
1S
1Z
1M
0W
0[
0@
0C
07
04
0'
0$
#600000
0!
01
0D
0?
0E
#625000
1!
11
1D
1?
1E
1N
1T
1U
1X
0S
0Y
1\
1A
1B
16
15
1&
1%
#650000
0!
01
0D
0?
0E
#675000
1!
11
1D
1?
1E
0T
1V
1G
1W
0U
0Z
1[
1@
1C
17
14
1'
1$
#700000
0!
01
0D
0?
0E
#725000
1!
11
1D
1?
1E
1J
0V
0G
0X
0M
1Y
0\
0A
0B
06
05
0&
0%
#750000
0!
01
0D
0?
0E
#775000
1!
11
1D
1?
1E
0J
0N
1S
1Z
1M
0W
0[
0@
0C
07
04
0'
0$
#800000
0!
01
0D
0?
0E
#825000
1!
11
1D
1?
1E
1N
1T
1U
1X
0S
0Y
1\
1A
1B
16
15
1&
1%
#850000
0!
01
0D
0?
0E
#875000
1!
11
1D
1?
1E
0T
1V
1G
1W
0U
0Z
1[
1@
1C
17
14
1'
1$
#900000
0!
01
0D
0?
0E
#925000
1!
11
1D
1?
1E
1J
0V
0G
0X
0M
1Y
0\
0A
0B
06
05
0&
0%
#950000
0!
01
0D
0?
0E
#975000
1!
11
1D
1?
1E
0J
0N
1S
1Z
1M
0W
0[
0@
0C
07
04
0'
0$
