PARTE A/simulation/qsim/ej_a.msim.vcd
$comment
	File created using the following command:
		vcd file ej_a.msim.vcd -direction
$end
$date
	Tue Oct 22 18:51:37 2024
$end
$version
	ModelSim Version 10.1d
$end
$timescale
	1ps
$end
$scope module ej_a_vhd_vec_tst $end
$var wire 1 ! LED $end
$var wire 1 " SW1 $end
$var wire 1 # SW2 $end
$var wire 1 $ SW3 $end
$scope module i1 $end
$var wire 1 % gnd $end
$var wire 1 & vcc $end
$var wire 1 ' unknown $end
$var wire 1 ( devoe $end
$var wire 1 ) devclrn $end
$var wire 1 * devpor $end
$var wire 1 + ww_devoe $end
$var wire 1 , ww_devclrn $end
$var wire 1 - ww_devpor $end
$var wire 1 . ww_SW1 $end
$var wire 1 / ww_SW2 $end
$var wire 1 0 ww_SW3 $end
$var wire 1 1 ww_LED $end
$var wire 1 2 \LED~output_o\ $end
$var wire 1 3 \SW2~input_o\ $end
$var wire 1 4 \SW3~input_o\ $end
$var wire 1 5 \SW1~input_o\ $end
$var wire 1 6 \LED~0_combout\ $end
$upscope $end
$upscope $end
$enddefinitions $end
#0
$dumpvars
0!
1"
0#
1$
0%
1&
x'
1(
1)
1*
1+
1,
1-
1.
0/
10
01
02
x3
x4
x5
x6
$end
#700
14
15
#806
03
#4579
16
#6100
x2
x1
x!
#10505
12
11
1!
#50000
1#
1/
#50700
13
#54210
06
#60268
02
01
0!
#100000
0#
0/
#100806
03
#104579
16
#110505
12
11
1!
#150000
1#
1/
#150700
13
#154210
06
#160268
02
01
0!
#200000
0#
0/
#200806
03
#204579
16
#210505
12
11
1!
#250000
1#
1/
#250700
13
#254210
06
#260268
02
01
0!
#300000
0#
0/
#300806
03
#304579
16
#310505
12
11
1!
#350000
1#
1/
#350700
13
#354210
06
#360268
02
01
0!
#400000
0#
0/
#400806
03
#404579
16
#410505
12
11
1!
#450000
1#
1/
#450700
13
#454210
06
#460268
02
01
0!
#500000
0#
0/
#500806
03
#504579
16
#510505
12
11
1!
#550000
1#
1/
#550700
13
#554210
06
#560268
02
01
0!
#600000
0#
0/
#600806
03
#604579
16
#610505
12
11
1!
#650000
1#
1/
#650700
13
#654210
06
#660268
02
01
0!
#700000
0#
0/
#700806
03
#704579
16
#710505
12
11
1!
#750000
1#
1/
#750700
13
#754210
06
#760268
02
01
0!
#800000
0#
0/
#800806
03
#804579
16
#810505
12
11
1!
#850000
1#
1/
#850700
13
#854210
06
#860268
02
01
0!
#900000
0#
0/
#900806
03
#904579
16
#910505
12
11
1!
#950000
1#
1/
#950700
13
#954210
06
#960268
02
01
0!
